<svg width="16" height="16" viewBox="0 0 16 16" fill="none" xmlns="http://www.w3.org/2000/svg">
<path d="M1.33334 7.33463H14.6667V13.3346C14.6667 13.5114 14.5964 13.681 14.4714 13.806C14.3464 13.9311 14.1768 14.0013 14 14.0013H2.00001C1.8232 14.0013 1.65363 13.9311 1.52861 13.806C1.40358 13.681 1.33334 13.5114 1.33334 13.3346V7.33463ZM11.3333 2.0013H14C14.1768 2.0013 14.3464 2.07154 14.4714 2.19656C14.5964 2.32159 14.6667 2.49116 14.6667 2.66797V6.0013H1.33334V2.66797C1.33334 2.49116 1.40358 2.32159 1.52861 2.19656C1.65363 2.07154 1.8232 2.0013 2.00001 2.0013H4.66668V0.667969H6.00001V2.0013H10V0.667969H11.3333V2.0013Z" fill="#9CA3AF"/>
</svg>
